%!PS-Adobe-2.0 EPSF-2.0
%%Title: Results.theta.alcf.anl.gov.01/Run.002/roofline.eps
%%Creator: gnuplot 4.6 patchlevel 4
%%CreationDate: Thu Dec 14 17:10:08 2017
%%DocumentFonts: (atend)
%%BoundingBox: 50 50 464 302
%%EndComments
%%BeginProlog
/gnudict 256 dict def
gnudict begin
%
% The following true/false flags may be edited by hand if desired.
% The unit line width and grayscale image gamma correction may also be changed.
%
/Color true def
/Blacktext false def
/Solid true def
/Dashlength 1 def
/Landscape false def
/Level1 false def
/Rounded true def
/ClipToBoundingBox false def
/SuppressPDFMark false def
/TransparentPatterns false def
/gnulinewidth 5.000 def
/userlinewidth gnulinewidth def
/Gamma 1.0 def
/BackgroundColor {-1.000 -1.000 -1.000} def
%
/vshift -60 def
/dl1 {
  10.0 Dashlength mul mul
  Rounded { currentlinewidth 0.75 mul sub dup 0 le { pop 0.01 } if } if
} def
/dl2 {
  10.0 Dashlength mul mul
  Rounded { currentlinewidth 0.75 mul add } if
} def
/hpt_ 31.5 def
/vpt_ 31.5 def
/hpt hpt_ def
/vpt vpt_ def
/doclip {
  ClipToBoundingBox {
    newpath 50 50 moveto 464 50 lineto 464 302 lineto 50 302 lineto closepath
    clip
  } if
} def
%
% Gnuplot Prolog Version 4.6 (September 2012)
%
%/SuppressPDFMark true def
%
/M {moveto} bind def
/L {lineto} bind def
/R {rmoveto} bind def
/V {rlineto} bind def
/N {newpath moveto} bind def
/Z {closepath} bind def
/C {setrgbcolor} bind def
/f {rlineto fill} bind def
/g {setgray} bind def
/Gshow {show} def   % May be redefined later in the file to support UTF-8
/vpt2 vpt 2 mul def
/hpt2 hpt 2 mul def
/Lshow {currentpoint stroke M 0 vshift R 
	Blacktext {gsave 0 setgray show grestore} {show} ifelse} def
/Rshow {currentpoint stroke M dup stringwidth pop neg vshift R
	Blacktext {gsave 0 setgray show grestore} {show} ifelse} def
/Cshow {currentpoint stroke M dup stringwidth pop -2 div vshift R 
	Blacktext {gsave 0 setgray show grestore} {show} ifelse} def
/UP {dup vpt_ mul /vpt exch def hpt_ mul /hpt exch def
  /hpt2 hpt 2 mul def /vpt2 vpt 2 mul def} def
/DL {Color {setrgbcolor Solid {pop []} if 0 setdash}
 {pop pop pop 0 setgray Solid {pop []} if 0 setdash} ifelse} def
/BL {stroke userlinewidth 2 mul setlinewidth
	Rounded {1 setlinejoin 1 setlinecap} if} def
/AL {stroke userlinewidth 2 div setlinewidth
	Rounded {1 setlinejoin 1 setlinecap} if} def
/UL {dup gnulinewidth mul /userlinewidth exch def
	dup 1 lt {pop 1} if 10 mul /udl exch def} def
/PL {stroke userlinewidth setlinewidth
	Rounded {1 setlinejoin 1 setlinecap} if} def
3.8 setmiterlimit
% Default Line colors
/LCw {1 1 1} def
/LCb {0 0 0} def
/LCa {0 0 0} def
/LC0 {1 0 0} def
/LC1 {0 1 0} def
/LC2 {0 0 1} def
/LC3 {1 0 1} def
/LC4 {0 1 1} def
/LC5 {1 1 0} def
/LC6 {0 0 0} def
/LC7 {1 0.3 0} def
/LC8 {0.5 0.5 0.5} def
% Default Line Types
/LTw {PL [] 1 setgray} def
/LTb {BL [] LCb DL} def
/LTa {AL [1 udl mul 2 udl mul] 0 setdash LCa setrgbcolor} def
/LT0 {PL [] LC0 DL} def
/LT1 {PL [4 dl1 2 dl2] LC1 DL} def
/LT2 {PL [2 dl1 3 dl2] LC2 DL} def
/LT3 {PL [1 dl1 1.5 dl2] LC3 DL} def
/LT4 {PL [6 dl1 2 dl2 1 dl1 2 dl2] LC4 DL} def
/LT5 {PL [3 dl1 3 dl2 1 dl1 3 dl2] LC5 DL} def
/LT6 {PL [2 dl1 2 dl2 2 dl1 6 dl2] LC6 DL} def
/LT7 {PL [1 dl1 2 dl2 6 dl1 2 dl2 1 dl1 2 dl2] LC7 DL} def
/LT8 {PL [2 dl1 2 dl2 2 dl1 2 dl2 2 dl1 2 dl2 2 dl1 4 dl2] LC8 DL} def
/Pnt {stroke [] 0 setdash gsave 1 setlinecap M 0 0 V stroke grestore} def
/Dia {stroke [] 0 setdash 2 copy vpt add M
  hpt neg vpt neg V hpt vpt neg V
  hpt vpt V hpt neg vpt V closepath stroke
  Pnt} def
/Pls {stroke [] 0 setdash vpt sub M 0 vpt2 V
  currentpoint stroke M
  hpt neg vpt neg R hpt2 0 V stroke
 } def
/Box {stroke [] 0 setdash 2 copy exch hpt sub exch vpt add M
  0 vpt2 neg V hpt2 0 V 0 vpt2 V
  hpt2 neg 0 V closepath stroke
  Pnt} def
/Crs {stroke [] 0 setdash exch hpt sub exch vpt add M
  hpt2 vpt2 neg V currentpoint stroke M
  hpt2 neg 0 R hpt2 vpt2 V stroke} def
/TriU {stroke [] 0 setdash 2 copy vpt 1.12 mul add M
  hpt neg vpt -1.62 mul V
  hpt 2 mul 0 V
  hpt neg vpt 1.62 mul V closepath stroke
  Pnt} def
/Star {2 copy Pls Crs} def
/BoxF {stroke [] 0 setdash exch hpt sub exch vpt add M
  0 vpt2 neg V hpt2 0 V 0 vpt2 V
  hpt2 neg 0 V closepath fill} def
/TriUF {stroke [] 0 setdash vpt 1.12 mul add M
  hpt neg vpt -1.62 mul V
  hpt 2 mul 0 V
  hpt neg vpt 1.62 mul V closepath fill} def
/TriD {stroke [] 0 setdash 2 copy vpt 1.12 mul sub M
  hpt neg vpt 1.62 mul V
  hpt 2 mul 0 V
  hpt neg vpt -1.62 mul V closepath stroke
  Pnt} def
/TriDF {stroke [] 0 setdash vpt 1.12 mul sub M
  hpt neg vpt 1.62 mul V
  hpt 2 mul 0 V
  hpt neg vpt -1.62 mul V closepath fill} def
/DiaF {stroke [] 0 setdash vpt add M
  hpt neg vpt neg V hpt vpt neg V
  hpt vpt V hpt neg vpt V closepath fill} def
/Pent {stroke [] 0 setdash 2 copy gsave
  translate 0 hpt M 4 {72 rotate 0 hpt L} repeat
  closepath stroke grestore Pnt} def
/PentF {stroke [] 0 setdash gsave
  translate 0 hpt M 4 {72 rotate 0 hpt L} repeat
  closepath fill grestore} def
/Circle {stroke [] 0 setdash 2 copy
  hpt 0 360 arc stroke Pnt} def
/CircleF {stroke [] 0 setdash hpt 0 360 arc fill} def
/C0 {BL [] 0 setdash 2 copy moveto vpt 90 450 arc} bind def
/C1 {BL [] 0 setdash 2 copy moveto
	2 copy vpt 0 90 arc closepath fill
	vpt 0 360 arc closepath} bind def
/C2 {BL [] 0 setdash 2 copy moveto
	2 copy vpt 90 180 arc closepath fill
	vpt 0 360 arc closepath} bind def
/C3 {BL [] 0 setdash 2 copy moveto
	2 copy vpt 0 180 arc closepath fill
	vpt 0 360 arc closepath} bind def
/C4 {BL [] 0 setdash 2 copy moveto
	2 copy vpt 180 270 arc closepath fill
	vpt 0 360 arc closepath} bind def
/C5 {BL [] 0 setdash 2 copy moveto
	2 copy vpt 0 90 arc
	2 copy moveto
	2 copy vpt 180 270 arc closepath fill
	vpt 0 360 arc} bind def
/C6 {BL [] 0 setdash 2 copy moveto
	2 copy vpt 90 270 arc closepath fill
	vpt 0 360 arc closepath} bind def
/C7 {BL [] 0 setdash 2 copy moveto
	2 copy vpt 0 270 arc closepath fill
	vpt 0 360 arc closepath} bind def
/C8 {BL [] 0 setdash 2 copy moveto
	2 copy vpt 270 360 arc closepath fill
	vpt 0 360 arc closepath} bind def
/C9 {BL [] 0 setdash 2 copy moveto
	2 copy vpt 270 450 arc closepath fill
	vpt 0 360 arc closepath} bind def
/C10 {BL [] 0 setdash 2 copy 2 copy moveto vpt 270 360 arc closepath fill
	2 copy moveto
	2 copy vpt 90 180 arc closepath fill
	vpt 0 360 arc closepath} bind def
/C11 {BL [] 0 setdash 2 copy moveto
	2 copy vpt 0 180 arc closepath fill
	2 copy moveto
	2 copy vpt 270 360 arc closepath fill
	vpt 0 360 arc closepath} bind def
/C12 {BL [] 0 setdash 2 copy moveto
	2 copy vpt 180 360 arc closepath fill
	vpt 0 360 arc closepath} bind def
/C13 {BL [] 0 setdash 2 copy moveto
	2 copy vpt 0 90 arc closepath fill
	2 copy moveto
	2 copy vpt 180 360 arc closepath fill
	vpt 0 360 arc closepath} bind def
/C14 {BL [] 0 setdash 2 copy moveto
	2 copy vpt 90 360 arc closepath fill
	vpt 0 360 arc} bind def
/C15 {BL [] 0 setdash 2 copy vpt 0 360 arc closepath fill
	vpt 0 360 arc closepath} bind def
/Rec {newpath 4 2 roll moveto 1 index 0 rlineto 0 exch rlineto
	neg 0 rlineto closepath} bind def
/Square {dup Rec} bind def
/Bsquare {vpt sub exch vpt sub exch vpt2 Square} bind def
/S0 {BL [] 0 setdash 2 copy moveto 0 vpt rlineto BL Bsquare} bind def
/S1 {BL [] 0 setdash 2 copy vpt Square fill Bsquare} bind def
/S2 {BL [] 0 setdash 2 copy exch vpt sub exch vpt Square fill Bsquare} bind def
/S3 {BL [] 0 setdash 2 copy exch vpt sub exch vpt2 vpt Rec fill Bsquare} bind def
/S4 {BL [] 0 setdash 2 copy exch vpt sub exch vpt sub vpt Square fill Bsquare} bind def
/S5 {BL [] 0 setdash 2 copy 2 copy vpt Square fill
	exch vpt sub exch vpt sub vpt Square fill Bsquare} bind def
/S6 {BL [] 0 setdash 2 copy exch vpt sub exch vpt sub vpt vpt2 Rec fill Bsquare} bind def
/S7 {BL [] 0 setdash 2 copy exch vpt sub exch vpt sub vpt vpt2 Rec fill
	2 copy vpt Square fill Bsquare} bind def
/S8 {BL [] 0 setdash 2 copy vpt sub vpt Square fill Bsquare} bind def
/S9 {BL [] 0 setdash 2 copy vpt sub vpt vpt2 Rec fill Bsquare} bind def
/S10 {BL [] 0 setdash 2 copy vpt sub vpt Square fill 2 copy exch vpt sub exch vpt Square fill
	Bsquare} bind def
/S11 {BL [] 0 setdash 2 copy vpt sub vpt Square fill 2 copy exch vpt sub exch vpt2 vpt Rec fill
	Bsquare} bind def
/S12 {BL [] 0 setdash 2 copy exch vpt sub exch vpt sub vpt2 vpt Rec fill Bsquare} bind def
/S13 {BL [] 0 setdash 2 copy exch vpt sub exch vpt sub vpt2 vpt Rec fill
	2 copy vpt Square fill Bsquare} bind def
/S14 {BL [] 0 setdash 2 copy exch vpt sub exch vpt sub vpt2 vpt Rec fill
	2 copy exch vpt sub exch vpt Square fill Bsquare} bind def
/S15 {BL [] 0 setdash 2 copy Bsquare fill Bsquare} bind def
/D0 {gsave translate 45 rotate 0 0 S0 stroke grestore} bind def
/D1 {gsave translate 45 rotate 0 0 S1 stroke grestore} bind def
/D2 {gsave translate 45 rotate 0 0 S2 stroke grestore} bind def
/D3 {gsave translate 45 rotate 0 0 S3 stroke grestore} bind def
/D4 {gsave translate 45 rotate 0 0 S4 stroke grestore} bind def
/D5 {gsave translate 45 rotate 0 0 S5 stroke grestore} bind def
/D6 {gsave translate 45 rotate 0 0 S6 stroke grestore} bind def
/D7 {gsave translate 45 rotate 0 0 S7 stroke grestore} bind def
/D8 {gsave translate 45 rotate 0 0 S8 stroke grestore} bind def
/D9 {gsave translate 45 rotate 0 0 S9 stroke grestore} bind def
/D10 {gsave translate 45 rotate 0 0 S10 stroke grestore} bind def
/D11 {gsave translate 45 rotate 0 0 S11 stroke grestore} bind def
/D12 {gsave translate 45 rotate 0 0 S12 stroke grestore} bind def
/D13 {gsave translate 45 rotate 0 0 S13 stroke grestore} bind def
/D14 {gsave translate 45 rotate 0 0 S14 stroke grestore} bind def
/D15 {gsave translate 45 rotate 0 0 S15 stroke grestore} bind def
/DiaE {stroke [] 0 setdash vpt add M
  hpt neg vpt neg V hpt vpt neg V
  hpt vpt V hpt neg vpt V closepath stroke} def
/BoxE {stroke [] 0 setdash exch hpt sub exch vpt add M
  0 vpt2 neg V hpt2 0 V 0 vpt2 V
  hpt2 neg 0 V closepath stroke} def
/TriUE {stroke [] 0 setdash vpt 1.12 mul add M
  hpt neg vpt -1.62 mul V
  hpt 2 mul 0 V
  hpt neg vpt 1.62 mul V closepath stroke} def
/TriDE {stroke [] 0 setdash vpt 1.12 mul sub M
  hpt neg vpt 1.62 mul V
  hpt 2 mul 0 V
  hpt neg vpt -1.62 mul V closepath stroke} def
/PentE {stroke [] 0 setdash gsave
  translate 0 hpt M 4 {72 rotate 0 hpt L} repeat
  closepath stroke grestore} def
/CircE {stroke [] 0 setdash 
  hpt 0 360 arc stroke} def
/Opaque {gsave closepath 1 setgray fill grestore 0 setgray closepath} def
/DiaW {stroke [] 0 setdash vpt add M
  hpt neg vpt neg V hpt vpt neg V
  hpt vpt V hpt neg vpt V Opaque stroke} def
/BoxW {stroke [] 0 setdash exch hpt sub exch vpt add M
  0 vpt2 neg V hpt2 0 V 0 vpt2 V
  hpt2 neg 0 V Opaque stroke} def
/TriUW {stroke [] 0 setdash vpt 1.12 mul add M
  hpt neg vpt -1.62 mul V
  hpt 2 mul 0 V
  hpt neg vpt 1.62 mul V Opaque stroke} def
/TriDW {stroke [] 0 setdash vpt 1.12 mul sub M
  hpt neg vpt 1.62 mul V
  hpt 2 mul 0 V
  hpt neg vpt -1.62 mul V Opaque stroke} def
/PentW {stroke [] 0 setdash gsave
  translate 0 hpt M 4 {72 rotate 0 hpt L} repeat
  Opaque stroke grestore} def
/CircW {stroke [] 0 setdash 
  hpt 0 360 arc Opaque stroke} def
/BoxFill {gsave Rec 1 setgray fill grestore} def
/Density {
  /Fillden exch def
  currentrgbcolor
  /ColB exch def /ColG exch def /ColR exch def
  /ColR ColR Fillden mul Fillden sub 1 add def
  /ColG ColG Fillden mul Fillden sub 1 add def
  /ColB ColB Fillden mul Fillden sub 1 add def
  ColR ColG ColB setrgbcolor} def
/BoxColFill {gsave Rec PolyFill} def
/PolyFill {gsave Density fill grestore grestore} def
/h {rlineto rlineto rlineto gsave closepath fill grestore} bind def
%
% PostScript Level 1 Pattern Fill routine for rectangles
% Usage: x y w h s a XX PatternFill
%	x,y = lower left corner of box to be filled
%	w,h = width and height of box
%	  a = angle in degrees between lines and x-axis
%	 XX = 0/1 for no/yes cross-hatch
%
/PatternFill {gsave /PFa [ 9 2 roll ] def
  PFa 0 get PFa 2 get 2 div add PFa 1 get PFa 3 get 2 div add translate
  PFa 2 get -2 div PFa 3 get -2 div PFa 2 get PFa 3 get Rec
  TransparentPatterns {} {gsave 1 setgray fill grestore} ifelse
  clip
  currentlinewidth 0.5 mul setlinewidth
  /PFs PFa 2 get dup mul PFa 3 get dup mul add sqrt def
  0 0 M PFa 5 get rotate PFs -2 div dup translate
  0 1 PFs PFa 4 get div 1 add floor cvi
	{PFa 4 get mul 0 M 0 PFs V} for
  0 PFa 6 get ne {
	0 1 PFs PFa 4 get div 1 add floor cvi
	{PFa 4 get mul 0 2 1 roll M PFs 0 V} for
 } if
  stroke grestore} def
%
/languagelevel where
 {pop languagelevel} {1} ifelse
 2 lt
	{/InterpretLevel1 true def}
	{/InterpretLevel1 Level1 def}
 ifelse
%
% PostScript level 2 pattern fill definitions
%
/Level2PatternFill {
/Tile8x8 {/PaintType 2 /PatternType 1 /TilingType 1 /BBox [0 0 8 8] /XStep 8 /YStep 8}
	bind def
/KeepColor {currentrgbcolor [/Pattern /DeviceRGB] setcolorspace} bind def
<< Tile8x8
 /PaintProc {0.5 setlinewidth pop 0 0 M 8 8 L 0 8 M 8 0 L stroke} 
>> matrix makepattern
/Pat1 exch def
<< Tile8x8
 /PaintProc {0.5 setlinewidth pop 0 0 M 8 8 L 0 8 M 8 0 L stroke
	0 4 M 4 8 L 8 4 L 4 0 L 0 4 L stroke}
>> matrix makepattern
/Pat2 exch def
<< Tile8x8
 /PaintProc {0.5 setlinewidth pop 0 0 M 0 8 L
	8 8 L 8 0 L 0 0 L fill}
>> matrix makepattern
/Pat3 exch def
<< Tile8x8
 /PaintProc {0.5 setlinewidth pop -4 8 M 8 -4 L
	0 12 M 12 0 L stroke}
>> matrix makepattern
/Pat4 exch def
<< Tile8x8
 /PaintProc {0.5 setlinewidth pop -4 0 M 8 12 L
	0 -4 M 12 8 L stroke}
>> matrix makepattern
/Pat5 exch def
<< Tile8x8
 /PaintProc {0.5 setlinewidth pop -2 8 M 4 -4 L
	0 12 M 8 -4 L 4 12 M 10 0 L stroke}
>> matrix makepattern
/Pat6 exch def
<< Tile8x8
 /PaintProc {0.5 setlinewidth pop -2 0 M 4 12 L
	0 -4 M 8 12 L 4 -4 M 10 8 L stroke}
>> matrix makepattern
/Pat7 exch def
<< Tile8x8
 /PaintProc {0.5 setlinewidth pop 8 -2 M -4 4 L
	12 0 M -4 8 L 12 4 M 0 10 L stroke}
>> matrix makepattern
/Pat8 exch def
<< Tile8x8
 /PaintProc {0.5 setlinewidth pop 0 -2 M 12 4 L
	-4 0 M 12 8 L -4 4 M 8 10 L stroke}
>> matrix makepattern
/Pat9 exch def
/Pattern1 {PatternBgnd KeepColor Pat1 setpattern} bind def
/Pattern2 {PatternBgnd KeepColor Pat2 setpattern} bind def
/Pattern3 {PatternBgnd KeepColor Pat3 setpattern} bind def
/Pattern4 {PatternBgnd KeepColor Landscape {Pat5} {Pat4} ifelse setpattern} bind def
/Pattern5 {PatternBgnd KeepColor Landscape {Pat4} {Pat5} ifelse setpattern} bind def
/Pattern6 {PatternBgnd KeepColor Landscape {Pat9} {Pat6} ifelse setpattern} bind def
/Pattern7 {PatternBgnd KeepColor Landscape {Pat8} {Pat7} ifelse setpattern} bind def
} def
%
%
%End of PostScript Level 2 code
%
/PatternBgnd {
  TransparentPatterns {} {gsave 1 setgray fill grestore} ifelse
} def
%
% Substitute for Level 2 pattern fill codes with
% grayscale if Level 2 support is not selected.
%
/Level1PatternFill {
/Pattern1 {0.250 Density} bind def
/Pattern2 {0.500 Density} bind def
/Pattern3 {0.750 Density} bind def
/Pattern4 {0.125 Density} bind def
/Pattern5 {0.375 Density} bind def
/Pattern6 {0.625 Density} bind def
/Pattern7 {0.875 Density} bind def
} def
%
% Now test for support of Level 2 code
%
Level1 {Level1PatternFill} {Level2PatternFill} ifelse
%
/Symbol-Oblique /Symbol findfont [1 0 .167 1 0 0] makefont
dup length dict begin {1 index /FID eq {pop pop} {def} ifelse} forall
currentdict end definefont pop
Level1 SuppressPDFMark or 
{} {
/SDict 10 dict def
systemdict /pdfmark known not {
  userdict /pdfmark systemdict /cleartomark get put
} if
SDict begin [
  /Title (Results.theta.alcf.anl.gov.01/Run.002/roofline.eps)
  /Subject (gnuplot plot)
  /Creator (gnuplot 4.6 patchlevel 4)
  /Author (hongzh)
%  /Producer (gnuplot)
%  /Keywords ()
  /CreationDate (Thu Dec 14 17:10:08 2017)
  /DOCINFO pdfmark
end
} ifelse
end
%%EndProlog
%%Page: 1 1
gnudict begin
gsave
doclip
50 50 translate
0.050 0.050 scale
0 setgray
newpath
(Helvetica) findfont 180 scalefont setfont
BackgroundColor 0 lt 3 1 roll 0 lt exch 0 lt or or not {BackgroundColor C 1.000 0 0 8280.00 5040.00 BoxColFill} if
1.000 UL
LTb
LCb setrgbcolor
1.000 UL
LTa
LCa setrgbcolor
1080 576 M
4751 0 V
stroke
LTb
LCb setrgbcolor
1080 576 M
63 0 V
4688 0 R
-63 0 V
972 576 M
( 10) Rshow
1.000 UL
LTb
LCb setrgbcolor
1.000 UL
LTa
LCa setrgbcolor
1080 576 M
4751 0 V
stroke
LTb
LCb setrgbcolor
1080 576 M
31 0 V
4720 0 R
-31 0 V
stroke
LTa
LCa setrgbcolor
1080 1053 M
2923 0 V
stroke
LTb
LCb setrgbcolor
1080 1053 M
31 0 V
4720 0 R
-31 0 V
stroke
LTa
LCa setrgbcolor
1080 1332 M
2923 0 V
stroke
LTb
LCb setrgbcolor
1080 1332 M
31 0 V
4720 0 R
-31 0 V
stroke
LTa
LCa setrgbcolor
1080 1529 M
2923 0 V
stroke
LTb
LCb setrgbcolor
1080 1529 M
31 0 V
4720 0 R
-31 0 V
stroke
LTa
LCa setrgbcolor
1080 1683 M
2923 0 V
stroke
LTb
LCb setrgbcolor
1080 1683 M
31 0 V
4720 0 R
-31 0 V
stroke
LTa
LCa setrgbcolor
1080 1808 M
2923 0 V
stroke
LTb
LCb setrgbcolor
1080 1808 M
31 0 V
4720 0 R
-31 0 V
stroke
LTa
LCa setrgbcolor
1080 1914 M
2923 0 V
stroke
LTb
LCb setrgbcolor
1080 1914 M
31 0 V
4720 0 R
-31 0 V
stroke
LTa
LCa setrgbcolor
1080 2006 M
2923 0 V
stroke
LTb
LCb setrgbcolor
1080 2006 M
31 0 V
4720 0 R
-31 0 V
stroke
LTa
LCa setrgbcolor
1080 2087 M
2923 0 V
stroke
LTb
LCb setrgbcolor
1080 2087 M
31 0 V
4720 0 R
-31 0 V
stroke
LTa
LCa setrgbcolor
1080 2160 M
4751 0 V
stroke
LTb
LCb setrgbcolor
1080 2160 M
63 0 V
4688 0 R
-63 0 V
-4796 0 R
( 100) Rshow
1.000 UL
LTb
LCb setrgbcolor
1.000 UL
LTa
LCa setrgbcolor
1080 2160 M
4751 0 V
stroke
LTb
LCb setrgbcolor
1080 2160 M
31 0 V
4720 0 R
-31 0 V
stroke
LTa
LCa setrgbcolor
1080 2636 M
4751 0 V
stroke
LTb
LCb setrgbcolor
1080 2636 M
31 0 V
4720 0 R
-31 0 V
stroke
LTa
LCa setrgbcolor
1080 2915 M
4751 0 V
stroke
LTb
LCb setrgbcolor
1080 2915 M
31 0 V
4720 0 R
-31 0 V
stroke
LTa
LCa setrgbcolor
1080 3113 M
4751 0 V
stroke
LTb
LCb setrgbcolor
1080 3113 M
31 0 V
4720 0 R
-31 0 V
stroke
LTa
LCa setrgbcolor
1080 3267 M
4751 0 V
stroke
LTb
LCb setrgbcolor
1080 3267 M
31 0 V
4720 0 R
-31 0 V
stroke
LTa
LCa setrgbcolor
1080 3392 M
4751 0 V
stroke
LTb
LCb setrgbcolor
1080 3392 M
31 0 V
4720 0 R
-31 0 V
stroke
LTa
LCa setrgbcolor
1080 3498 M
4751 0 V
stroke
LTb
LCb setrgbcolor
1080 3498 M
31 0 V
4720 0 R
-31 0 V
stroke
LTa
LCa setrgbcolor
1080 3590 M
4751 0 V
stroke
LTb
LCb setrgbcolor
1080 3590 M
31 0 V
4720 0 R
-31 0 V
stroke
LTa
LCa setrgbcolor
1080 3671 M
4751 0 V
stroke
LTb
LCb setrgbcolor
1080 3671 M
31 0 V
4720 0 R
-31 0 V
stroke
LTa
LCa setrgbcolor
1080 3743 M
4751 0 V
stroke
LTb
LCb setrgbcolor
1080 3743 M
63 0 V
4688 0 R
-63 0 V
-4796 0 R
( 1000) Rshow
1.000 UL
LTb
LCb setrgbcolor
1.000 UL
LTa
LCa setrgbcolor
1080 3743 M
4751 0 V
stroke
LTb
LCb setrgbcolor
1080 3743 M
31 0 V
4720 0 R
-31 0 V
stroke
LTa
LCa setrgbcolor
1080 4220 M
4751 0 V
stroke
LTb
LCb setrgbcolor
1080 4220 M
31 0 V
4720 0 R
-31 0 V
stroke
LTa
LCa setrgbcolor
1080 4499 M
4751 0 V
stroke
LTb
LCb setrgbcolor
1080 4499 M
31 0 V
4720 0 R
-31 0 V
stroke
LTa
LCa setrgbcolor
1080 576 M
0 3923 V
stroke
LTb
LCb setrgbcolor
1080 576 M
0 63 V
0 3860 R
0 -63 V
0 -4040 R
( 0.01) Cshow
1.000 UL
LTb
LCb setrgbcolor
1.000 UL
LTa
LCa setrgbcolor
1080 576 M
0 3923 V
stroke
LTb
LCb setrgbcolor
1080 576 M
0 31 V
0 3892 R
0 -31 V
stroke
LTa
LCa setrgbcolor
1557 576 M
0 3923 V
stroke
LTb
LCb setrgbcolor
1557 576 M
0 31 V
0 3892 R
0 -31 V
stroke
LTa
LCa setrgbcolor
1836 576 M
0 3923 V
stroke
LTb
LCb setrgbcolor
1836 576 M
0 31 V
0 3892 R
0 -31 V
stroke
LTa
LCa setrgbcolor
2033 576 M
0 3923 V
stroke
LTb
LCb setrgbcolor
2033 576 M
0 31 V
0 3892 R
0 -31 V
stroke
LTa
LCa setrgbcolor
2187 576 M
0 3923 V
stroke
LTb
LCb setrgbcolor
2187 576 M
0 31 V
0 3892 R
0 -31 V
stroke
LTa
LCa setrgbcolor
2312 576 M
0 3923 V
stroke
LTb
LCb setrgbcolor
2312 576 M
0 31 V
0 3892 R
0 -31 V
stroke
LTa
LCa setrgbcolor
2418 576 M
0 3923 V
stroke
LTb
LCb setrgbcolor
2418 576 M
0 31 V
0 3892 R
0 -31 V
stroke
LTa
LCa setrgbcolor
2510 576 M
0 3923 V
stroke
LTb
LCb setrgbcolor
2510 576 M
0 31 V
0 3892 R
0 -31 V
stroke
LTa
LCa setrgbcolor
2591 576 M
0 3923 V
stroke
LTb
LCb setrgbcolor
2591 576 M
0 31 V
0 3892 R
0 -31 V
stroke
LTa
LCa setrgbcolor
2664 576 M
0 3923 V
stroke
LTb
LCb setrgbcolor
2664 576 M
0 63 V
0 3860 R
0 -63 V
0 -4040 R
( 0.1) Cshow
1.000 UL
LTb
LCb setrgbcolor
1.000 UL
LTa
LCa setrgbcolor
2664 576 M
0 3923 V
stroke
LTb
LCb setrgbcolor
2664 576 M
0 31 V
0 3892 R
0 -31 V
stroke
LTa
LCa setrgbcolor
3140 576 M
0 3923 V
stroke
LTb
LCb setrgbcolor
3140 576 M
0 31 V
0 3892 R
0 -31 V
stroke
LTa
LCa setrgbcolor
3419 576 M
0 3923 V
stroke
LTb
LCb setrgbcolor
3419 576 M
0 31 V
0 3892 R
0 -31 V
stroke
LTa
LCa setrgbcolor
3617 576 M
0 3923 V
stroke
LTb
LCb setrgbcolor
3617 576 M
0 31 V
0 3892 R
0 -31 V
stroke
LTa
LCa setrgbcolor
3771 576 M
0 3923 V
stroke
LTb
LCb setrgbcolor
3771 576 M
0 31 V
0 3892 R
0 -31 V
stroke
LTa
LCa setrgbcolor
3896 576 M
0 3923 V
stroke
LTb
LCb setrgbcolor
3896 576 M
0 31 V
0 3892 R
0 -31 V
stroke
LTa
LCa setrgbcolor
4002 576 M
0 3923 V
stroke
LTb
LCb setrgbcolor
4002 576 M
0 31 V
0 3892 R
0 -31 V
stroke
LTa
LCa setrgbcolor
4094 576 M
0 279 V
0 1260 R
0 2384 V
stroke
LTb
LCb setrgbcolor
4094 576 M
0 31 V
0 3892 R
0 -31 V
stroke
LTa
LCa setrgbcolor
4175 576 M
0 279 V
0 1260 R
0 2384 V
stroke
LTb
LCb setrgbcolor
4175 576 M
0 31 V
0 3892 R
0 -31 V
stroke
LTa
LCa setrgbcolor
4247 576 M
0 279 V
0 1260 R
0 2384 V
stroke
LTb
LCb setrgbcolor
4247 576 M
0 63 V
0 3860 R
0 -63 V
0 -4040 R
( 1) Cshow
1.000 UL
LTb
LCb setrgbcolor
1.000 UL
LTa
LCa setrgbcolor
4247 576 M
0 279 V
0 1260 R
0 2384 V
stroke
LTb
LCb setrgbcolor
4247 576 M
0 31 V
0 3892 R
0 -31 V
stroke
LTa
LCa setrgbcolor
4724 576 M
0 279 V
0 1260 R
0 2384 V
stroke
LTb
LCb setrgbcolor
4724 576 M
0 31 V
0 3892 R
0 -31 V
stroke
LTa
LCa setrgbcolor
5003 576 M
0 279 V
0 1260 R
0 2384 V
stroke
LTb
LCb setrgbcolor
5003 576 M
0 31 V
0 3892 R
0 -31 V
stroke
LTa
LCa setrgbcolor
5201 576 M
0 279 V
0 1260 R
0 2384 V
stroke
LTb
LCb setrgbcolor
5201 576 M
0 31 V
0 3892 R
0 -31 V
stroke
LTa
LCa setrgbcolor
5354 576 M
0 279 V
0 1260 R
0 2384 V
stroke
LTb
LCb setrgbcolor
5354 576 M
0 31 V
0 3892 R
0 -31 V
stroke
LTa
LCa setrgbcolor
5480 576 M
0 279 V
0 1260 R
0 2384 V
stroke
LTb
LCb setrgbcolor
5480 576 M
0 31 V
0 3892 R
0 -31 V
stroke
LTa
LCa setrgbcolor
5586 576 M
0 279 V
0 1260 R
0 2384 V
stroke
LTb
LCb setrgbcolor
5586 576 M
0 31 V
0 3892 R
0 -31 V
stroke
LTa
LCa setrgbcolor
5678 576 M
0 279 V
0 1260 R
0 2384 V
stroke
LTb
LCb setrgbcolor
5678 576 M
0 31 V
0 3892 R
0 -31 V
stroke
LTa
LCa setrgbcolor
5759 576 M
0 279 V
0 1260 R
0 2384 V
stroke
LTb
LCb setrgbcolor
5759 576 M
0 31 V
0 3892 R
0 -31 V
stroke
LTa
LCa setrgbcolor
5831 576 M
0 279 V
0 1260 R
0 2384 V
stroke
LTb
LCb setrgbcolor
5831 576 M
0 63 V
0 3860 R
0 -63 V
0 -4040 R
( 10) Cshow
1.000 UL
LTb
LCb setrgbcolor
1.000 UL
LTa
LCa setrgbcolor
5831 576 M
0 279 V
0 1260 R
0 2384 V
stroke
LTb
LCb setrgbcolor
5831 576 M
0 31 V
0 3892 R
0 -31 V
stroke
LTb
LCb setrgbcolor
1080 4499 N
0 -3923 V
4751 0 V
0 3923 V
-4751 0 V
Z stroke
LCb setrgbcolor
234 2537 M
currentpoint gsave translate -270 rotate 0 0 M
(GFLOPs / sec) Cshow
grestore
LTb
LCb setrgbcolor
6010 2537 M
currentpoint gsave translate -270 rotate 0 0 M
() Cshow
grestore
LTb
LCb setrgbcolor
3455 126 M
(FLOPs / Byte) Cshow
LTb
3455 4769 M
(Roofline on Theta) Cshow
LCb setrgbcolor
3455 4408 M
() Cshow
LTb
324 90 M
() Lshow
1.000 UP
0.00 0.00 0.50 C 3174 3881 M
(1018.4 GFLOPs/sec \(Maximum\)) Lshow
0.50 0.00 0.00 C 1993 2669 M
currentpoint gsave translate 45 rotate 0 0 M
(L1 - 4593.3 GB/s) Lshow
grestore
0.50 0.00 0.00 C 2311 2351 M
currentpoint gsave translate 45 rotate 0 0 M
(L2 - 1823.0 GB/s) Lshow
grestore
0.50 0.00 0.00 C 2730 1760 M
currentpoint gsave translate 45 rotate 0 0 M
(MCDRAM - 419.7 GB/s) Lshow
grestore
1.000 UL
LTb
LCb setrgbcolor
% Begin plot #1
3.000 UL
LT0
1.00 0.00 0.00 C /Helvetica findfont 180 scalefont setfont
/vshift -60 def
1080 1625 M
5 4 V
5 5 V
4 5 V
5 5 V
5 4 V
5 5 V
4 5 V
5 5 V
5 4 V
5 5 V
4 5 V
5 5 V
5 4 V
5 5 V
4 5 V
5 5 V
5 4 V
5 5 V
4 5 V
5 5 V
5 4 V
5 5 V
4 5 V
5 5 V
5 4 V
5 5 V
4 5 V
5 5 V
5 5 V
5 4 V
4 5 V
5 5 V
5 5 V
5 4 V
4 5 V
5 5 V
5 5 V
5 4 V
4 5 V
5 5 V
5 5 V
5 4 V
4 5 V
5 5 V
5 5 V
5 4 V
5 5 V
4 5 V
5 5 V
5 4 V
5 5 V
4 5 V
5 5 V
5 4 V
5 5 V
4 5 V
5 5 V
5 4 V
5 5 V
4 5 V
5 5 V
5 4 V
5 5 V
4 5 V
5 5 V
5 4 V
5 5 V
4 5 V
5 5 V
5 5 V
5 4 V
4 5 V
5 5 V
5 5 V
5 4 V
4 5 V
5 5 V
5 5 V
5 4 V
4 5 V
5 5 V
5 5 V
5 4 V
4 5 V
5 5 V
5 5 V
5 4 V
5 5 V
4 5 V
5 5 V
5 4 V
5 5 V
4 5 V
5 5 V
5 4 V
5 5 V
4 5 V
5 5 V
5 4 V
5 5 V
4 5 V
5 5 V
5 4 V
5 5 V
stroke 1575 2119 M
4 5 V
5 5 V
5 4 V
5 5 V
4 5 V
5 5 V
5 5 V
5 4 V
4 5 V
5 5 V
5 5 V
5 4 V
4 5 V
5 5 V
5 5 V
5 4 V
4 5 V
5 5 V
5 5 V
5 4 V
4 5 V
5 5 V
5 5 V
5 4 V
4 5 V
5 5 V
5 5 V
5 4 V
5 5 V
4 5 V
5 5 V
5 4 V
5 5 V
4 5 V
5 5 V
5 4 V
5 5 V
4 5 V
5 5 V
5 4 V
5 5 V
4 5 V
5 5 V
5 4 V
5 5 V
4 5 V
5 5 V
5 4 V
5 5 V
4 5 V
5 5 V
5 5 V
5 4 V
4 5 V
5 5 V
5 5 V
5 4 V
4 5 V
5 5 V
5 5 V
5 4 V
4 5 V
5 5 V
5 5 V
5 4 V
4 5 V
5 5 V
5 5 V
5 4 V
5 5 V
4 5 V
5 5 V
5 4 V
5 5 V
4 5 V
5 5 V
5 4 V
5 5 V
4 5 V
5 5 V
5 4 V
5 5 V
4 5 V
5 5 V
5 4 V
5 5 V
4 5 V
5 5 V
5 4 V
5 5 V
4 5 V
5 5 V
5 5 V
5 4 V
4 5 V
5 5 V
5 5 V
5 4 V
4 5 V
5 5 V
5 5 V
5 4 V
4 5 V
5 5 V
stroke 2069 2614 M
5 5 V
5 4 V
4 5 V
5 5 V
5 5 V
5 4 V
4 5 V
5 5 V
5 5 V
5 4 V
5 5 V
4 5 V
5 5 V
5 4 V
5 5 V
4 5 V
5 5 V
5 4 V
5 5 V
4 5 V
5 5 V
5 4 V
5 5 V
4 5 V
5 5 V
5 4 V
5 5 V
4 5 V
5 5 V
5 4 V
5 5 V
4 5 V
5 5 V
5 5 V
5 4 V
4 5 V
5 5 V
5 5 V
5 4 V
4 5 V
5 5 V
5 5 V
5 4 V
4 5 V
5 5 V
5 5 V
5 4 V
4 5 V
5 5 V
5 5 V
5 4 V
4 5 V
5 5 V
5 5 V
5 4 V
5 5 V
4 5 V
5 5 V
5 4 V
5 5 V
4 5 V
5 5 V
5 4 V
5 5 V
4 5 V
5 5 V
5 4 V
5 5 V
4 5 V
5 5 V
5 4 V
5 5 V
4 5 V
5 5 V
5 5 V
5 4 V
4 5 V
5 5 V
5 5 V
5 4 V
4 5 V
5 5 V
5 5 V
5 4 V
4 5 V
5 5 V
5 5 V
5 4 V
4 5 V
5 5 V
5 5 V
5 4 V
4 5 V
5 5 V
5 5 V
5 4 V
5 5 V
4 5 V
5 5 V
5 4 V
5 5 V
4 5 V
5 5 V
5 4 V
stroke 2564 3108 M
5 5 V
4 5 V
5 5 V
5 4 V
5 5 V
4 5 V
5 5 V
5 4 V
5 5 V
4 5 V
5 5 V
5 4 V
5 5 V
4 5 V
5 5 V
5 5 V
5 4 V
4 5 V
5 5 V
5 5 V
5 4 V
4 5 V
5 5 V
5 5 V
5 4 V
4 5 V
5 5 V
5 5 V
5 4 V
4 5 V
5 5 V
5 5 V
5 4 V
4 5 V
5 5 V
5 5 V
5 4 V
5 5 V
4 5 V
5 5 V
5 4 V
5 5 V
4 5 V
5 5 V
5 4 V
5 5 V
4 5 V
5 5 V
5 4 V
5 5 V
4 5 V
5 5 V
5 4 V
5 5 V
4 5 V
5 5 V
5 5 V
5 4 V
4 5 V
5 5 V
5 5 V
5 4 V
4 5 V
5 5 V
5 5 V
5 4 V
4 5 V
5 5 V
5 5 V
5 4 V
4 5 V
5 5 V
5 5 V
5 4 V
4 5 V
5 5 V
5 5 V
5 4 V
5 5 V
4 5 V
5 5 V
5 4 V
5 5 V
4 5 V
5 5 V
5 4 V
5 5 V
4 5 V
5 5 V
5 4 V
5 5 V
4 5 V
5 5 V
5 4 V
5 5 V
4 5 V
5 5 V
5 4 V
5 5 V
4 5 V
5 5 V
5 5 V
5 4 V
4 5 V
stroke 3058 3603 M
5 5 V
5 5 V
5 4 V
4 5 V
5 5 V
5 5 V
5 4 V
4 5 V
5 5 V
5 5 V
5 4 V
4 5 V
5 5 V
5 5 V
5 4 V
4 5 V
5 5 V
5 5 V
5 4 V
5 5 V
4 5 V
5 5 V
5 4 V
5 5 V
4 5 V
5 5 V
5 4 V
5 5 V
4 5 V
5 5 V
5 4 V
5 5 V
% End plot #1
% Begin plot #2
stroke
LT1
0.00 1.00 0.00 C /Helvetica findfont 180 scalefont setfont
1080 989 M
5 5 V
5 5 V
4 4 V
5 5 V
5 5 V
5 5 V
4 4 V
5 5 V
5 5 V
5 5 V
4 4 V
5 5 V
5 5 V
5 5 V
4 4 V
5 5 V
5 5 V
5 5 V
4 4 V
5 5 V
5 5 V
5 5 V
4 4 V
5 5 V
5 5 V
5 5 V
4 4 V
5 5 V
5 5 V
5 5 V
4 4 V
5 5 V
5 5 V
5 5 V
4 4 V
5 5 V
5 5 V
5 5 V
4 4 V
5 5 V
5 5 V
5 5 V
4 4 V
5 5 V
5 5 V
5 5 V
5 5 V
4 4 V
5 5 V
5 5 V
5 5 V
4 4 V
5 5 V
5 5 V
5 5 V
4 4 V
5 5 V
5 5 V
5 5 V
4 4 V
5 5 V
5 5 V
5 5 V
4 4 V
5 5 V
5 5 V
5 5 V
4 4 V
5 5 V
5 5 V
5 5 V
4 4 V
5 5 V
5 5 V
5 5 V
4 4 V
5 5 V
5 5 V
5 5 V
4 4 V
5 5 V
5 5 V
5 5 V
4 4 V
5 5 V
5 5 V
5 5 V
5 5 V
4 4 V
5 5 V
5 5 V
5 5 V
4 4 V
5 5 V
5 5 V
5 5 V
4 4 V
5 5 V
5 5 V
5 5 V
4 4 V
5 5 V
5 5 V
5 5 V
stroke 1575 1484 M
4 4 V
5 5 V
5 5 V
5 5 V
4 4 V
5 5 V
5 5 V
5 5 V
4 4 V
5 5 V
5 5 V
5 5 V
4 4 V
5 5 V
5 5 V
5 5 V
4 4 V
5 5 V
5 5 V
5 5 V
4 4 V
5 5 V
5 5 V
5 5 V
4 4 V
5 5 V
5 5 V
5 5 V
5 5 V
4 4 V
5 5 V
5 5 V
5 5 V
4 4 V
5 5 V
5 5 V
5 5 V
4 4 V
5 5 V
5 5 V
5 5 V
4 4 V
5 5 V
5 5 V
5 5 V
4 4 V
5 5 V
5 5 V
5 5 V
4 4 V
5 5 V
5 5 V
5 5 V
4 4 V
5 5 V
5 5 V
5 5 V
4 4 V
5 5 V
5 5 V
5 5 V
4 4 V
5 5 V
5 5 V
5 5 V
4 4 V
5 5 V
5 5 V
5 5 V
5 5 V
4 4 V
5 5 V
5 5 V
5 5 V
4 4 V
5 5 V
5 5 V
5 5 V
4 4 V
5 5 V
5 5 V
5 5 V
4 4 V
5 5 V
5 5 V
5 5 V
4 4 V
5 5 V
5 5 V
5 5 V
4 4 V
5 5 V
5 5 V
5 5 V
4 4 V
5 5 V
5 5 V
5 5 V
4 4 V
5 5 V
5 5 V
5 5 V
4 4 V
5 5 V
stroke 2069 1978 M
5 5 V
5 5 V
4 4 V
5 5 V
5 5 V
5 5 V
4 4 V
5 5 V
5 5 V
5 5 V
5 5 V
4 4 V
5 5 V
5 5 V
5 5 V
4 4 V
5 5 V
5 5 V
5 5 V
4 4 V
5 5 V
5 5 V
5 5 V
4 4 V
5 5 V
5 5 V
5 5 V
4 4 V
5 5 V
5 5 V
5 5 V
4 4 V
5 5 V
5 5 V
5 5 V
4 4 V
5 5 V
5 5 V
5 5 V
4 4 V
5 5 V
5 5 V
5 5 V
4 4 V
5 5 V
5 5 V
5 5 V
4 4 V
5 5 V
5 5 V
5 5 V
4 5 V
5 4 V
5 5 V
5 5 V
5 5 V
4 4 V
5 5 V
5 5 V
5 5 V
4 4 V
5 5 V
5 5 V
5 5 V
4 4 V
5 5 V
5 5 V
5 5 V
4 4 V
5 5 V
5 5 V
5 5 V
4 4 V
5 5 V
5 5 V
5 5 V
4 4 V
5 5 V
5 5 V
5 5 V
4 4 V
5 5 V
5 5 V
5 5 V
4 4 V
5 5 V
5 5 V
5 5 V
4 4 V
5 5 V
5 5 V
5 5 V
4 4 V
5 5 V
5 5 V
5 5 V
5 5 V
4 4 V
5 5 V
5 5 V
5 5 V
4 4 V
5 5 V
5 5 V
stroke 2564 2473 M
5 5 V
4 4 V
5 5 V
5 5 V
5 5 V
4 4 V
5 5 V
5 5 V
5 5 V
4 4 V
5 5 V
5 5 V
5 5 V
4 4 V
5 5 V
5 5 V
5 5 V
4 4 V
5 5 V
5 5 V
5 5 V
4 4 V
5 5 V
5 5 V
5 5 V
4 4 V
5 5 V
5 5 V
5 5 V
4 4 V
5 5 V
5 5 V
5 5 V
4 5 V
5 4 V
5 5 V
5 5 V
5 5 V
4 4 V
5 5 V
5 5 V
5 5 V
4 4 V
5 5 V
5 5 V
5 5 V
4 4 V
5 5 V
5 5 V
5 5 V
4 4 V
5 5 V
5 5 V
5 5 V
4 4 V
5 5 V
5 5 V
5 5 V
4 4 V
5 5 V
5 5 V
5 5 V
4 4 V
5 5 V
5 5 V
5 5 V
4 4 V
5 5 V
5 5 V
5 5 V
4 4 V
5 5 V
5 5 V
5 5 V
4 4 V
5 5 V
5 5 V
5 5 V
5 5 V
4 4 V
5 5 V
5 5 V
5 5 V
4 4 V
5 5 V
5 5 V
5 5 V
4 4 V
5 5 V
5 5 V
5 5 V
4 4 V
5 5 V
5 5 V
5 5 V
4 4 V
5 5 V
5 5 V
5 5 V
4 4 V
5 5 V
5 5 V
5 5 V
4 4 V
stroke 3058 2967 M
5 5 V
5 5 V
5 5 V
4 4 V
5 5 V
5 5 V
5 5 V
4 4 V
5 5 V
5 5 V
5 5 V
4 4 V
5 5 V
5 5 V
5 5 V
4 5 V
5 4 V
5 5 V
5 5 V
5 5 V
4 4 V
5 5 V
5 5 V
5 5 V
4 4 V
5 5 V
5 5 V
5 5 V
4 4 V
5 5 V
5 5 V
5 5 V
4 4 V
5 5 V
5 5 V
5 5 V
4 4 V
5 5 V
5 5 V
5 5 V
4 4 V
5 5 V
5 5 V
5 5 V
4 4 V
5 5 V
5 5 V
5 5 V
4 4 V
5 5 V
5 5 V
5 5 V
4 4 V
5 5 V
5 5 V
5 5 V
4 5 V
5 4 V
5 5 V
5 5 V
4 5 V
5 4 V
5 5 V
5 5 V
5 5 V
4 4 V
5 5 V
5 5 V
5 5 V
4 4 V
5 5 V
5 5 V
5 5 V
4 4 V
5 5 V
5 5 V
5 5 V
4 4 V
5 5 V
5 5 V
5 5 V
4 4 V
5 5 V
5 5 V
5 5 V
4 4 V
5 5 V
5 5 V
5 5 V
4 4 V
5 5 V
5 5 V
5 5 V
4 4 V
5 5 V
5 5 V
5 5 V
4 4 V
5 5 V
5 5 V
5 5 V
4 5 V
5 4 V
5 5 V
stroke 3553 3462 M
5 5 V
5 5 V
4 4 V
5 5 V
5 5 V
5 5 V
4 4 V
5 5 V
5 5 V
5 5 V
4 4 V
5 5 V
5 5 V
5 5 V
4 4 V
5 5 V
5 5 V
5 5 V
4 4 V
5 5 V
5 5 V
5 5 V
4 4 V
5 5 V
5 5 V
5 5 V
4 4 V
5 5 V
5 5 V
5 5 V
4 4 V
5 5 V
5 5 V
5 5 V
4 4 V
5 5 V
5 5 V
5 5 V
4 5 V
5 4 V
5 5 V
5 5 V
4 5 V
5 4 V
5 5 V
5 5 V
5 5 V
4 4 V
5 5 V
5 5 V
5 5 V
4 4 V
5 5 V
5 5 V
5 5 V
4 4 V
5 5 V
5 5 V
5 5 V
4 4 V
5 5 V
% End plot #2
% Begin plot #3
stroke
LT2
1.00 0.65 0.00 C /Helvetica findfont 180 scalefont setfont
1677 576 M
2 2 V
5 5 V
5 5 V
4 4 V
5 5 V
5 5 V
5 5 V
5 4 V
4 5 V
5 5 V
5 5 V
5 4 V
4 5 V
5 5 V
5 5 V
5 4 V
4 5 V
5 5 V
5 5 V
5 4 V
4 5 V
5 5 V
5 5 V
5 4 V
4 5 V
5 5 V
5 5 V
5 4 V
4 5 V
5 5 V
5 5 V
5 4 V
4 5 V
5 5 V
5 5 V
5 5 V
4 4 V
5 5 V
5 5 V
5 5 V
4 4 V
5 5 V
5 5 V
5 5 V
4 4 V
5 5 V
5 5 V
5 5 V
5 4 V
4 5 V
5 5 V
5 5 V
5 4 V
4 5 V
5 5 V
5 5 V
5 4 V
4 5 V
5 5 V
5 5 V
5 4 V
4 5 V
5 5 V
5 5 V
5 4 V
4 5 V
5 5 V
5 5 V
5 4 V
4 5 V
5 5 V
5 5 V
5 4 V
4 5 V
5 5 V
5 5 V
5 4 V
4 5 V
5 5 V
5 5 V
5 5 V
4 4 V
5 5 V
5 5 V
5 5 V
4 4 V
5 5 V
5 5 V
5 5 V
4 4 V
5 5 V
5 5 V
5 5 V
5 4 V
4 5 V
5 5 V
5 5 V
5 4 V
4 5 V
5 5 V
5 5 V
5 4 V
4 5 V
5 5 V
stroke 2169 1068 M
5 5 V
5 4 V
4 5 V
5 5 V
5 5 V
5 4 V
4 5 V
5 5 V
5 5 V
5 4 V
4 5 V
5 5 V
5 5 V
5 4 V
4 5 V
5 5 V
5 5 V
5 5 V
4 4 V
5 5 V
5 5 V
5 5 V
4 4 V
5 5 V
5 5 V
5 5 V
4 4 V
5 5 V
5 5 V
5 5 V
4 4 V
5 5 V
5 5 V
5 5 V
5 4 V
4 5 V
5 5 V
5 5 V
5 4 V
4 5 V
5 5 V
5 5 V
5 4 V
4 5 V
5 5 V
5 5 V
5 4 V
4 5 V
5 5 V
5 5 V
5 4 V
4 5 V
5 5 V
5 5 V
5 4 V
4 5 V
5 5 V
5 5 V
5 4 V
4 5 V
5 5 V
5 5 V
5 5 V
4 4 V
5 5 V
5 5 V
5 5 V
4 4 V
5 5 V
5 5 V
5 5 V
4 4 V
5 5 V
5 5 V
5 5 V
5 4 V
4 5 V
5 5 V
5 5 V
5 4 V
4 5 V
5 5 V
5 5 V
5 4 V
4 5 V
5 5 V
5 5 V
5 4 V
4 5 V
5 5 V
5 5 V
5 4 V
4 5 V
5 5 V
5 5 V
5 4 V
4 5 V
5 5 V
5 5 V
5 4 V
4 5 V
5 5 V
5 5 V
5 5 V
stroke 2664 1563 M
4 4 V
5 5 V
5 5 V
5 5 V
4 4 V
5 5 V
5 5 V
5 5 V
4 4 V
5 5 V
5 5 V
5 5 V
4 4 V
5 5 V
5 5 V
5 5 V
5 4 V
4 5 V
5 5 V
5 5 V
5 4 V
4 5 V
5 5 V
5 5 V
5 4 V
4 5 V
5 5 V
5 5 V
5 4 V
4 5 V
5 5 V
5 5 V
5 4 V
4 5 V
5 5 V
5 5 V
5 4 V
4 5 V
5 5 V
5 5 V
5 5 V
4 4 V
5 5 V
5 5 V
5 5 V
4 4 V
5 5 V
5 5 V
5 5 V
4 4 V
5 5 V
5 5 V
5 5 V
4 4 V
5 5 V
5 5 V
5 5 V
5 4 V
4 5 V
5 5 V
5 5 V
5 4 V
4 5 V
5 5 V
5 5 V
5 4 V
4 5 V
5 5 V
5 5 V
5 4 V
4 5 V
5 5 V
5 5 V
5 4 V
4 5 V
5 5 V
5 5 V
5 4 V
4 5 V
5 5 V
5 5 V
5 4 V
4 5 V
5 5 V
5 5 V
5 5 V
4 4 V
5 5 V
5 5 V
5 5 V
4 4 V
5 5 V
5 5 V
5 5 V
4 4 V
5 5 V
5 5 V
5 5 V
4 4 V
5 5 V
5 5 V
5 5 V
5 4 V
4 5 V
stroke 3158 2057 M
5 5 V
5 5 V
5 4 V
4 5 V
5 5 V
5 5 V
5 4 V
4 5 V
5 5 V
5 5 V
5 4 V
4 5 V
5 5 V
5 5 V
5 4 V
4 5 V
5 5 V
5 5 V
5 4 V
4 5 V
5 5 V
5 5 V
5 5 V
4 4 V
5 5 V
5 5 V
5 5 V
4 4 V
5 5 V
5 5 V
5 5 V
4 4 V
5 5 V
5 5 V
5 5 V
4 4 V
5 5 V
5 5 V
5 5 V
4 4 V
5 5 V
5 5 V
5 5 V
5 4 V
4 5 V
5 5 V
5 5 V
5 4 V
4 5 V
5 5 V
5 5 V
5 4 V
4 5 V
5 5 V
5 5 V
5 4 V
4 5 V
5 5 V
5 5 V
5 4 V
4 5 V
5 5 V
5 5 V
5 4 V
4 5 V
5 5 V
5 5 V
5 5 V
4 4 V
5 5 V
5 5 V
5 5 V
4 4 V
5 5 V
5 5 V
5 5 V
4 4 V
5 5 V
5 5 V
5 5 V
4 4 V
5 5 V
5 5 V
5 5 V
5 4 V
4 5 V
5 5 V
5 5 V
5 4 V
4 5 V
5 5 V
5 5 V
5 4 V
4 5 V
5 5 V
5 5 V
5 4 V
4 5 V
5 5 V
5 5 V
5 4 V
4 5 V
5 5 V
5 5 V
stroke 3653 2552 M
5 4 V
4 5 V
5 5 V
5 5 V
5 5 V
4 4 V
5 5 V
5 5 V
5 5 V
4 4 V
5 5 V
5 5 V
5 5 V
4 4 V
5 5 V
5 5 V
5 5 V
4 4 V
5 5 V
5 5 V
5 5 V
4 4 V
5 5 V
5 5 V
5 5 V
5 4 V
4 5 V
5 5 V
5 5 V
5 4 V
4 5 V
5 5 V
5 5 V
5 4 V
4 5 V
5 5 V
5 5 V
5 4 V
4 5 V
5 5 V
5 5 V
5 4 V
4 5 V
5 5 V
5 5 V
5 4 V
4 5 V
5 5 V
5 5 V
5 5 V
4 4 V
5 5 V
5 5 V
5 5 V
4 4 V
5 5 V
5 5 V
5 5 V
4 4 V
5 5 V
5 5 V
5 5 V
4 4 V
5 5 V
5 5 V
5 5 V
4 4 V
5 5 V
5 5 V
5 5 V
5 4 V
4 5 V
5 5 V
5 5 V
5 4 V
4 5 V
5 5 V
5 5 V
5 4 V
4 5 V
5 5 V
5 5 V
5 4 V
4 5 V
5 5 V
5 5 V
5 4 V
4 5 V
5 5 V
5 5 V
5 5 V
4 4 V
5 5 V
5 5 V
5 5 V
4 4 V
5 5 V
5 5 V
5 5 V
4 4 V
5 5 V
5 5 V
5 5 V
4 4 V
stroke 4147 3046 M
5 5 V
5 5 V
5 5 V
4 4 V
5 5 V
5 5 V
5 5 V
5 4 V
4 5 V
5 5 V
5 5 V
5 4 V
4 5 V
5 5 V
5 5 V
5 4 V
4 5 V
5 5 V
5 5 V
5 4 V
4 5 V
5 5 V
5 5 V
5 4 V
4 5 V
5 5 V
5 5 V
5 4 V
4 5 V
5 5 V
5 5 V
5 5 V
4 4 V
5 5 V
5 5 V
5 5 V
4 4 V
5 5 V
5 5 V
5 5 V
4 4 V
5 5 V
5 5 V
5 5 V
4 4 V
5 5 V
5 5 V
5 5 V
4 4 V
5 5 V
5 5 V
5 5 V
5 4 V
4 5 V
5 5 V
5 5 V
5 4 V
4 5 V
5 5 V
5 5 V
5 4 V
4 5 V
5 5 V
5 5 V
5 4 V
4 5 V
5 5 V
5 5 V
5 4 V
4 5 V
5 5 V
5 5 V
5 5 V
4 4 V
5 5 V
5 5 V
5 5 V
4 4 V
5 5 V
5 5 V
5 5 V
4 4 V
5 5 V
5 5 V
5 5 V
4 4 V
5 5 V
5 5 V
5 5 V
4 4 V
5 5 V
5 5 V
5 5 V
5 4 V
4 5 V
5 5 V
5 5 V
5 4 V
4 5 V
5 5 V
5 5 V
5 4 V
4 5 V
5 5 V
stroke 4642 3541 M
5 5 V
5 4 V
4 5 V
5 5 V
5 5 V
5 4 V
4 5 V
5 5 V
5 5 V
5 4 V
4 5 V
5 5 V
5 5 V
5 5 V
4 4 V
5 5 V
5 5 V
5 5 V
4 4 V
5 5 V
5 5 V
5 5 V
4 4 V
5 5 V
5 5 V
5 5 V
4 4 V
5 5 V
5 5 V
5 5 V
4 4 V
5 5 V
5 5 V
5 5 V
5 4 V
4 5 V
5 5 V
5 5 V
5 4 V
4 5 V
5 5 V
5 5 V
5 4 V
4 5 V
5 5 V
% End plot #3
% Begin plot #4
stroke
LT3
LC2 setrgbcolor
/Helvetica findfont 180 scalefont setfont
3215 3756 M
5 0 V
5 0 V
5 0 V
4 0 V
5 0 V
5 0 V
5 0 V
4 0 V
5 0 V
5 0 V
5 0 V
4 0 V
5 0 V
5 0 V
5 0 V
4 0 V
5 0 V
5 0 V
5 0 V
4 0 V
5 0 V
5 0 V
5 0 V
4 0 V
5 0 V
5 0 V
5 0 V
4 0 V
5 0 V
5 0 V
5 0 V
5 0 V
4 0 V
5 0 V
5 0 V
5 0 V
4 0 V
5 0 V
5 0 V
5 0 V
4 0 V
5 0 V
5 0 V
5 0 V
4 0 V
5 0 V
5 0 V
5 0 V
4 0 V
5 0 V
5 0 V
5 0 V
4 0 V
5 0 V
5 0 V
5 0 V
4 0 V
5 0 V
5 0 V
5 0 V
4 0 V
5 0 V
5 0 V
5 0 V
4 0 V
5 0 V
5 0 V
5 0 V
4 0 V
5 0 V
5 0 V
5 0 V
5 0 V
4 0 V
5 0 V
5 0 V
5 0 V
4 0 V
5 0 V
5 0 V
5 0 V
4 0 V
5 0 V
5 0 V
5 0 V
4 0 V
5 0 V
5 0 V
5 0 V
4 0 V
5 0 V
5 0 V
5 0 V
4 0 V
5 0 V
5 0 V
5 0 V
4 0 V
5 0 V
5 0 V
5 0 V
4 0 V
5 0 V
5 0 V
stroke 3710 3756 M
5 0 V
4 0 V
5 0 V
5 0 V
5 0 V
4 0 V
5 0 V
5 0 V
5 0 V
4 0 V
5 0 V
5 0 V
5 0 V
5 0 V
4 0 V
5 0 V
5 0 V
5 0 V
4 0 V
5 0 V
5 0 V
5 0 V
4 0 V
5 0 V
5 0 V
5 0 V
4 0 V
5 0 V
5 0 V
5 0 V
4 0 V
5 0 V
5 0 V
5 0 V
4 0 V
5 0 V
5 0 V
5 0 V
4 0 V
5 0 V
5 0 V
5 0 V
4 0 V
5 0 V
5 0 V
5 0 V
4 0 V
5 0 V
5 0 V
5 0 V
4 0 V
5 0 V
5 0 V
5 0 V
4 0 V
5 0 V
5 0 V
5 0 V
5 0 V
4 0 V
5 0 V
5 0 V
5 0 V
4 0 V
5 0 V
5 0 V
5 0 V
4 0 V
5 0 V
5 0 V
5 0 V
4 0 V
5 0 V
5 0 V
5 0 V
4 0 V
5 0 V
5 0 V
5 0 V
4 0 V
5 0 V
5 0 V
5 0 V
4 0 V
5 0 V
5 0 V
5 0 V
4 0 V
5 0 V
5 0 V
5 0 V
4 0 V
5 0 V
5 0 V
5 0 V
4 0 V
5 0 V
5 0 V
5 0 V
5 0 V
4 0 V
5 0 V
5 0 V
5 0 V
stroke 4205 3756 M
4 0 V
5 0 V
5 0 V
5 0 V
4 0 V
5 0 V
5 0 V
5 0 V
4 0 V
5 0 V
5 0 V
5 0 V
4 0 V
5 0 V
5 0 V
5 0 V
4 0 V
5 0 V
5 0 V
5 0 V
4 0 V
5 0 V
5 0 V
5 0 V
4 0 V
5 0 V
5 0 V
5 0 V
4 0 V
5 0 V
5 0 V
5 0 V
4 0 V
5 0 V
5 0 V
5 0 V
4 0 V
5 0 V
5 0 V
5 0 V
5 0 V
4 0 V
5 0 V
5 0 V
5 0 V
4 0 V
5 0 V
5 0 V
5 0 V
4 0 V
5 0 V
5 0 V
5 0 V
4 0 V
5 0 V
5 0 V
5 0 V
4 0 V
5 0 V
5 0 V
5 0 V
4 0 V
5 0 V
5 0 V
5 0 V
4 0 V
5 0 V
5 0 V
5 0 V
4 0 V
5 0 V
5 0 V
5 0 V
4 0 V
5 0 V
5 0 V
5 0 V
4 0 V
5 0 V
5 0 V
5 0 V
5 0 V
4 0 V
5 0 V
5 0 V
5 0 V
4 0 V
5 0 V
5 0 V
5 0 V
4 0 V
5 0 V
5 0 V
5 0 V
4 0 V
5 0 V
5 0 V
5 0 V
4 0 V
5 0 V
5 0 V
5 0 V
4 0 V
5 0 V
stroke 4699 3756 M
5 0 V
5 0 V
4 0 V
5 0 V
5 0 V
5 0 V
4 0 V
5 0 V
5 0 V
5 0 V
4 0 V
5 0 V
5 0 V
5 0 V
4 0 V
5 0 V
5 0 V
5 0 V
4 0 V
5 0 V
5 0 V
5 0 V
5 0 V
4 0 V
5 0 V
5 0 V
5 0 V
4 0 V
5 0 V
5 0 V
5 0 V
4 0 V
5 0 V
5 0 V
5 0 V
4 0 V
5 0 V
5 0 V
5 0 V
4 0 V
5 0 V
5 0 V
5 0 V
4 0 V
5 0 V
5 0 V
5 0 V
4 0 V
5 0 V
5 0 V
5 0 V
4 0 V
5 0 V
5 0 V
5 0 V
4 0 V
5 0 V
5 0 V
5 0 V
4 0 V
5 0 V
5 0 V
5 0 V
4 0 V
5 0 V
5 0 V
5 0 V
5 0 V
4 0 V
5 0 V
5 0 V
5 0 V
4 0 V
5 0 V
5 0 V
5 0 V
4 0 V
5 0 V
5 0 V
5 0 V
4 0 V
5 0 V
5 0 V
5 0 V
4 0 V
5 0 V
5 0 V
5 0 V
4 0 V
5 0 V
5 0 V
5 0 V
4 0 V
5 0 V
5 0 V
5 0 V
4 0 V
5 0 V
5 0 V
5 0 V
4 0 V
5 0 V
5 0 V
5 0 V
stroke 5194 3756 M
4 0 V
5 0 V
5 0 V
5 0 V
5 0 V
4 0 V
5 0 V
5 0 V
5 0 V
4 0 V
5 0 V
5 0 V
5 0 V
4 0 V
5 0 V
5 0 V
5 0 V
4 0 V
5 0 V
5 0 V
5 0 V
4 0 V
5 0 V
5 0 V
5 0 V
4 0 V
5 0 V
5 0 V
5 0 V
4 0 V
5 0 V
5 0 V
5 0 V
4 0 V
5 0 V
5 0 V
5 0 V
4 0 V
5 0 V
5 0 V
5 0 V
4 0 V
5 0 V
5 0 V
5 0 V
4 0 V
5 0 V
5 0 V
5 0 V
5 0 V
4 0 V
5 0 V
5 0 V
5 0 V
4 0 V
5 0 V
5 0 V
5 0 V
4 0 V
5 0 V
5 0 V
5 0 V
4 0 V
5 0 V
5 0 V
5 0 V
4 0 V
5 0 V
5 0 V
5 0 V
4 0 V
5 0 V
5 0 V
5 0 V
4 0 V
5 0 V
5 0 V
5 0 V
4 0 V
5 0 V
5 0 V
5 0 V
4 0 V
5 0 V
5 0 V
5 0 V
4 0 V
5 0 V
5 0 V
5 0 V
5 0 V
4 0 V
5 0 V
5 0 V
5 0 V
4 0 V
5 0 V
5 0 V
5 0 V
4 0 V
5 0 V
5 0 V
5 0 V
4 0 V
stroke 5688 3756 M
5 0 V
5 0 V
5 0 V
4 0 V
5 0 V
5 0 V
5 0 V
4 0 V
5 0 V
5 0 V
5 0 V
4 0 V
5 0 V
5 0 V
5 0 V
4 0 V
5 0 V
5 0 V
5 0 V
4 0 V
5 0 V
5 0 V
5 0 V
4 0 V
5 0 V
5 0 V
5 0 V
4 0 V
5 0 V
5 0 V
% End plot #4
% Begin plot #5
2.500 UP
stroke
1.000 UL
LT4
LC4 setrgbcolor
LCb setrgbcolor
7459 2025 M
(SELL using avx512 intrinsics) Rshow
LT4
2855 1562 TriUF
7814 2025 TriUF
% End plot #5
% Begin plot #6
2.000 UP
1.000 UL
LT5
0.65 0.16 0.16 C LCb setrgbcolor
7459 1845 M
(SELL using avx2 intrinsics) Rshow
LT5
0.65 0.16 0.16 C 2855 1325 TriUF
7814 1845 TriUF
% End plot #6
% Begin plot #7
1.500 UP
1.000 UL
LT6
0.25 0.50 0.00 C LCb setrgbcolor
7459 1665 M
(SELL using avx intrinsics) Rshow
LT6
0.25 0.50 0.00 C 2855 1419 TriUF
7814 1665 TriUF
% End plot #7
% Begin plot #8
2.500 UP
1.000 UL
LT7
0.00 0.50 1.00 C LCb setrgbcolor
7459 1485 M
(AIJ using avx512 intrinsics) Rshow
LT7
0.00 0.50 1.00 C 2855 1292 Crs
7814 1485 Crs
% End plot #8
% Begin plot #9
1.000 UP
1.000 UL
LT8
LC8 setrgbcolor
LCb setrgbcolor
7459 1305 M
(AIJPERM vectorized automatically) Rshow
LT8
2855 982 Crs
7814 1305 Crs
% End plot #9
% Begin plot #10
1.000 UP
1.000 UL
LT0
LC0 setrgbcolor
LCb setrgbcolor
7459 1125 M
(AIJ vectorized automatically) Rshow
LT0
2855 995 Dia
7814 1125 Dia
% End plot #10
% Begin plot #11
2.500 UP
1.000 UL
LT1
LC1 setrgbcolor
LCb setrgbcolor
7459 945 M
(AIJMKL) Rshow
LT1
2855 966 Pent
7814 945 Pent
% End plot #11
1.000 UL
LTb
LCb setrgbcolor
1080 4499 N
0 -3923 V
4751 0 V
0 3923 V
-4751 0 V
Z stroke
1.000 UP
1.000 UL
LTb
LCb setrgbcolor
stroke
grestore
end
showpage
%%Trailer
%%DocumentFonts: Helvetica
